module gitlab.com/consensys-hellhound/pythia

require (
	github.com/Jeffail/gabs v1.1.1
	github.com/VividCortex/gohistogram v1.0.0 // indirect
	github.com/alecthomas/template v0.0.0-20160405071501-a0175ee3bccc // indirect
	github.com/alecthomas/units v0.0.0-20151022065526-2efee857e7cf // indirect
	github.com/beorn7/perks v0.0.0-20180321164747-3a771d992973 // indirect
	github.com/codahale/hdrhistogram v0.0.0-20161010025455-3a0bb77429bd // indirect
	github.com/davecgh/go-spew v1.1.1 // indirect
	github.com/go-kit/kit v0.7.0
	github.com/go-logfmt/logfmt v0.3.0 // indirect
	github.com/go-stack/stack v1.8.0 // indirect
	github.com/gorilla/context v1.1.1 // indirect
	github.com/gorilla/mux v1.6.2
	github.com/kr/logfmt v0.0.0-20140226030751-b84e30acd515 // indirect
	github.com/matttproud/golang_protobuf_extensions v1.0.1 // indirect
	github.com/nats-io/gnatsd v1.3.0 // indirect
	github.com/nats-io/go-nats v1.6.0
	github.com/nats-io/nuid v1.0.0 // indirect
	github.com/onsi/gomega v1.4.2 // indirect
	github.com/opentracing/opentracing-go v1.0.2
	github.com/pkg/errors v0.8.0 // indirect
	github.com/pmezard/go-difflib v1.0.0 // indirect
	github.com/prometheus/client_golang v0.8.0
	github.com/prometheus/client_model v0.0.0-20180712105110-5c3871d89910 // indirect
	github.com/prometheus/common v0.0.0-20180801064454-c7de2306084e
	github.com/prometheus/procfs v0.0.0-20180725123919-05ee40e3a273 // indirect
	github.com/satori/go.uuid v1.2.0
	github.com/sirupsen/logrus v1.0.6
	github.com/stretchr/testify v1.2.2 // indirect
	github.com/uber-go/atomic v1.3.2 // indirect
	github.com/uber/jaeger-client-go v2.14.0+incompatible
	github.com/uber/jaeger-lib v1.5.0 // indirect
	gitlab.com/consensys-hellhound/log v0.0.0-20180918085732-1074d933924e
	go.uber.org/atomic v1.3.2 // indirect
	golang.org/x/crypto v0.0.0-20180910181607-0e37d006457b // indirect
	gopkg.in/airbrake/gobrake.v2 v2.0.9 // indirect
	gopkg.in/alecthomas/kingpin.v2 v2.2.6 // indirect
	gopkg.in/gemnasium/logrus-airbrake-hook.v2 v2.1.2 // indirect
)
